{
  "extends": ["tslint-config-airbnb", "tslint-react", "tslint-config-prettier"],
  "rules": {
    "max-line-length": [true, 120],
    "indent": [true, "spaces", 4],
    "align": [true, "parameters", "statements"]
  }
}
